%YAML 1.1
%TAG !u! tag:unity3d.com,2011:
--- !u!1 &2386884415061756397
GameObject:
  m_ObjectHideFlags: 0
  m_CorrespondingSourceObject: {fileID: 0}
  m_PrefabInstance: {fileID: 0}
  m_PrefabAsset: {fileID: 0}
  serializedVersion: 6
  m_Component:
  - component: {fileID: 6492099338500589840}
  - component: {fileID: 8895784833991090382}
  - component: {fileID: -6174134144131109488}
  - component: {fileID: -4593321247777141633}
  m_Layer: 0
  m_Name: Chesspiece
  m_TagString: Untagged
  m_Icon: {fileID: 0}
  m_NavMeshLayer: 0
  m_StaticEditorFlags: 0
  m_IsActive: 1
--- !u!4 &6492099338500589840
Transform:
  m_ObjectHideFlags: 0
  m_CorrespondingSourceObject: {fileID: 0}
  m_PrefabInstance: {fileID: 0}
  m_PrefabAsset: {fileID: 0}
  m_GameObject: {fileID: 2386884415061756397}
  m_LocalRotation: {x: 0, y: 0, z: 0, w: 1}
  m_LocalPosition: {x: -0.985, y: -0.985, z: -2}
  m_LocalScale: {x: 3, y: 3, z: 1}
  m_Children: []
  m_Father: {fileID: 0}
  m_RootOrder: 0
  m_LocalEulerAnglesHint: {x: 0, y: 0, z: 0}
--- !u!212 &8895784833991090382
SpriteRenderer:
  m_ObjectHideFlags: 0
  m_CorrespondingSourceObject: {fileID: 0}
  m_PrefabInstance: {fileID: 0}
  m_PrefabAsset: {fileID: 0}
  m_GameObject: {fileID: 2386884415061756397}
  m_Enabled: 1
  m_CastShadows: 0
  m_ReceiveShadows: 0
  m_DynamicOccludee: 1
  m_MotionVectors: 1
  m_LightProbeUsage: 1
  m_ReflectionProbeUsage: 1
  m_RayTracingMode: 0
  m_RayTraceProcedural: 0
  m_RenderingLayerMask: 1
  m_RendererPriority: 0
  m_Materials:
  - {fileID: 10754, guid: 0000000000000000f000000000000000, type: 0}
  m_StaticBatchInfo:
    firstSubMesh: 0
    subMeshCount: 0
  m_StaticBatchRoot: {fileID: 0}
  m_ProbeAnchor: {fileID: 0}
  m_LightProbeVolumeOverride: {fileID: 0}
  m_ScaleInLightmap: 1
  m_ReceiveGI: 1
  m_PreserveUVs: 0
  m_IgnoreNormalsForChartDetection: 0
  m_ImportantGI: 0
  m_StitchLightmapSeams: 1
  m_SelectedEditorRenderState: 0
  m_MinimumChartSize: 4
  m_AutoUVMaxDistance: 0.5
  m_AutoUVMaxAngle: 89
  m_LightmapParameters: {fileID: 0}
  m_SortingLayerID: 0
  m_SortingLayer: 0
  m_SortingOrder: 0
  m_Sprite: {fileID: 21300000, guid: d93c045798eb66844a7d56c77e2b4b36, type: 3}
  m_Color: {r: 1, g: 1, b: 1, a: 1}
  m_FlipX: 0
  m_FlipY: 0
  m_DrawMode: 0
  m_Size: {x: 0.2, y: 0.2}
  m_AdaptiveModeThreshold: 0.5
  m_SpriteTileMode: 0
  m_WasSpriteAssigned: 1
  m_MaskInteraction: 0
  m_SpriteSortPoint: 0
--- !u!114 &-6174134144131109488
MonoBehaviour:
  m_ObjectHideFlags: 0
  m_CorrespondingSourceObject: {fileID: 0}
  m_PrefabInstance: {fileID: 0}
  m_PrefabAsset: {fileID: 0}
  m_GameObject: {fileID: 2386884415061756397}
  m_Enabled: 1
  m_EditorHideFlags: 0
  m_Script: {fileID: 11500000, guid: a1fa46c3b06070141bb5a7a8dcf6349a, type: 3}
  m_Name: 
  m_EditorClassIdentifier: 
  controller: {fileID: 0}
  movePlate: {fileID: 2607282272709488886, guid: bc2c9bf8dfc331d4d95655b97f4ab197, type: 3}
  black_queen: {fileID: 21300000, guid: 5ace8b8d7e29986459443328ea8705db, type: 3}
  black_knight: {fileID: 21300000, guid: cb15f6b532330654ca9f0bd863c059c9, type: 3}
  black_bishop: {fileID: 21300000, guid: d420a4c978686944f80e1c77a1b44640, type: 3}
  black_rook: {fileID: 21300000, guid: e9c38e4a68fcb354ea0e16e74158f7f1, type: 3}
  black_king: {fileID: 21300000, guid: d93c045798eb66844a7d56c77e2b4b36, type: 3}
  black_pawn: {fileID: 21300000, guid: 79bc08fea071a414283d1ca1cd50a776, type: 3}
  white_queen: {fileID: 21300000, guid: 35811f6efc3f10f4ba00e28a099df72f, type: 3}
  white_knight: {fileID: 21300000, guid: 118537daf07877a4da22e7651192cd4e, type: 3}
  white_bishop: {fileID: 21300000, guid: d313ace2c70cc4a47b798553f79561d8, type: 3}
  white_rook: {fileID: 21300000, guid: e860b42043970084e9d330a8b138913c, type: 3}
  white_king: {fileID: 21300000, guid: 293df8ee37dabea429857ed7bb41acbe, type: 3}
  white_pawn: {fileID: 21300000, guid: 3bf6f4b7299e590438b5700542de95f4, type: 3}
--- !u!61 &-4593321247777141633
BoxCollider2D:
  m_ObjectHideFlags: 0
  m_CorrespondingSourceObject: {fileID: 0}
  m_PrefabInstance: {fileID: 0}
  m_PrefabAsset: {fileID: 0}
  m_GameObject: {fileID: 2386884415061756397}
  m_Enabled: 1
  m_Density: 1
  m_Material: {fileID: 0}
  m_IsTrigger: 0
  m_UsedByEffector: 0
  m_UsedByComposite: 0
  m_Offset: {x: 0, y: 0}
  m_SpriteTilingProperty:
    border: {x: 0, y: 0, z: 0, w: 0}
    pivot: {x: 0.5, y: 0.5}
    oldSize: {x: 0.2, y: 0.2}
    newSize: {x: 0.2, y: 0.2}
    adaptiveTilingThreshold: 0.5
    drawMode: 0
    adaptiveTiling: 0
  m_AutoTiling: 0
  serializedVersion: 2
  m_Size: {x: 0.2, y: 0.2}
  m_EdgeRadius: 0
