{
  "project_info": {
    "project_number": "525155623190",
    "firebase_url": "https://chess-89471-default-rtdb.europe-west1.firebasedatabase.app",
    "project_id": "chess-89471",
    "storage_bucket": "chess-89471.appspot.com"
  },
  "client": [
    {
      "client_info": {
        "mobilesdk_app_id": "1:525155623190:android:523c93d466f3a0a42a7037",
        "android_client_info": {
          "package_name": "com.mcast.chess"
        }
      },
      "oauth_client": [
        {
          "client_id": "525155623190-47llhl098h5ggtmpk289lfasmu0atvhh.apps.googleusercontent.com",
          "client_type": 3
        }
      ],
      "api_key": [
        {
          "current_key": "AIzaSyBDI6KwftF--xDdgJd_Baef4x-Cycgia2w"
        }
      ],
      "services": {
        "appinvite_service": {
          "other_platform_oauth_client": [
            {
              "client_id": "525155623190-47llhl098h5ggtmpk289lfasmu0atvhh.apps.googleusercontent.com",
              "client_type": 3
            }
          ]
        }
      }
    }
  ],
  "configuration_version": "1"
}